Statistical Programming Paradigms and Workflows (BSPH 140.840) - Retrieving data from APIs with httr
…
$created_at
[1] "2012-02-19T21:18:27Z"

$updated_at
[1] "2022-11-29T18:35:36Z"

Next, let’s perform the same request we did above about my 85 repositories, but instead of reading in the JSON file from the web, we use an authenticated GET() response:

response <- GET('https://api.github.com/users/stephaniehicks/repos?page=1&per_page=1000',
                authenticate('stephaniehicks', github_key))
repo_details <- as_tibble(fromJSON(httr::content(response, as = 'text')))
repo_details

# A tibble: 85 × 80
          id node_id   name  full_…¹ private owner…² html_…³ descr…⁴ fork  url  
       <int> <chr>     <chr> <chr>   <lgl>   <chr>   <chr>   <chr>   <lgl> <chr>
 1 160194123 MDEwOlJl… 2018… stepha… FALSE   stepha… https:… <NA>    FALSE http…
 2 132884754 MDEwOlJl… advd… stepha… FALSE   stepha… https:… <NA>    TRUE  http…
 3 225501707 MDEwOlJl… Awes… stepha… FALSE   stepha… https:… A cura… TRUE  http…
 4  63822882 MDEwOlJl… awes… stepha… FALSE   stepha… https:… List o… TRUE  http…
 5  16586187 MDEwOlJl… Back… stepha… FALSE   stepha… https:… Gene e… FALSE http…
 6 287533539 MDEwOlJl… benc… stepha… FALSE   stepha… https:… <NA>    FALSE http…
 7 168789632 MDEwOlJl… benc… stepha… FALSE   stepha… https:… Benchm… FALSE http…
 8 140320609 MDEwOlJl… benc… stepha… FALSE   stepha… https:… Reposi… FALSE http…
 9 178318764 MDEwOlJl… benc… stepha… FALSE   stepha… https:… Data a… FALSE http…
10 313126225 MDEwOlJl… bioc… stepha… FALSE   stepha… https:… <NA>    FALSE http…
# … with 75 more rows, 87 more variables: owner$id <int>, $node_id <chr>,
#   $avatar_url <chr>, $gravatar_id <chr>, $url <chr>, $html_url <chr>,
#   $followers_url <chr>, $following_url <chr>, $gists_url <chr>,
#   $starred_url <chr>, $subscriptions_url <chr>, $organizations_url <chr>,
#   $repos_url <chr>, $events_url <chr>, $received_events_url <chr>,
#   $type <chr>, $site_admin <lgl>, forks_url <chr>, keys_url <chr>,
#   collaborators_url <chr>, teams_url <chr>, hooks_url <chr>, …
…
Whew! Not as many as I thought.

:::{.callout}

More about GET

You can use the query argument to specify details about the response.

library(httr)
req <- GET("https://api.github.com/repos/tidyverse/dplyr/issues", 
           query = list(state = "open", per_page = 100, page = 1))
dplyr_details <- as_tibble(fromJSON(httr::content(req, as = 'text')))
dplyr_details

# A tibble: 24 × 30
   url       repos…¹ label…² comme…³ event…⁴ html_…⁵     id node_id number title
   <chr>     <chr>   <chr>   <chr>   <chr>   <chr>    <int> <chr>    <int> <chr>
 1 https://… https:… https:… https:… https:… https:… 1.47e9 I_kwDO…   6585 "Sug…
 2 https://… https:… https:… https:… https:… https:… 1.47e9 I_kwDO…   6582 "Sho…
 3 https://… https:… https:… https:… https:… https:… 1.47e9 I_kwDO…   6580 "Mak…
 4 https://… https:… https:… https:… https:… https:… 1.47e9 I_kwDO…   6565 "Fee…
 5 https://… https:… https:… https:… https:… https:… 1.46e9 I_kwDO…   6560 "`fi…
 6 https://… https:… https:… https:… https:… https:… 1.46e9 PR_kwD…   6550 "Loo…
 7 https://… https:… https:… https:… https:… https:… 1.45e9 I_kwDO…   6545 "`ac…
 8 https://… https:… https:… https:… https:… https:… 1.44e9 I_kwDO…   6532 "Alt…
 9 https://… https:… https:… https:… https:… https:… 1.43e9 I_kwDO…   6525 "Avo…
10 https://… https:… https:… https:… https:… https:… 1.40e9 I_kwDO…   6497 "`ne…
# … with 14 more rows, 20 more variables: user <df[,18]>, labels <list>,
#   state <chr>, locked <lgl>, assignee <df[,18]>, assignees <list>,
#   milestone <df[,16]>, comments <int>, created_at <chr>, updated_at <chr>,
#   closed_at <lgl>, author_association <chr>, active_lock_reason <lgl>,
#   body <chr>, reactions <df[,10]>, timeline_url <chr>,
#   performed_via_github_app <lgl>, state_reason <lgl>, draft <lgl>,
#   pull_request <df[,5]>, and abbreviated variable names ¹​repository_url, …
…
